…
``` r
# pivot_longer() cumple la misma función de "melt()"
nivel_edu <- nivel_edu %>% 
  pivot_longer(starts_with("p_"), "periodo",values_to = "notas")
nivel_edu
```

    ## # A tibble: 75 x 5
    ##    region         pais     materia     periodo notas
    ##    <chr>          <chr>    <chr>       <chr>   <dbl>
    ##  1 America latina Colombia matematicas p_2014   63.7
    ##  2 America latina Colombia matematicas p_2016   79.4
    ##  3 America latina Colombia matematicas p_2018   86.6
    ##  4 America latina Colombia matematicas p_2020   50.1
    ##  5 America latina Colombia matematicas p_2022   71.4
    ##  6 America latina Colombia lenguaje    p_2014   69.5
    ##  7 America latina Colombia lenguaje    p_2016   48.2
    ##  8 America latina Colombia lenguaje    p_2018   28.3
    ##  9 America latina Colombia lenguaje    p_2020   53.1
    ## 10 America latina Colombia lenguaje    p_2022   56.4
    ## # ... with 65 more rows
…
